module DockerGoMysqlPhpmyadmin

go 1.16

require (
	github.com/garyburd/redigo v1.6.2
	github.com/go-sql-driver/mysql v1.6.0
	github.com/joho/godotenv v1.3.0
	github.com/julienschmidt/httprouter v1.3.0
)
